Division,WeightClassKg,Place,Name,Team,BodyweightKg,Best3SquatKg,Best3BenchKg,Best3DeadliftKg,TotalKg,Equipment,Event,Sex
Boys,52,1,Darrian Butler,Denison,51.03,142.88,77.11,158.76,378.75,Single-ply,SBD,M
Boys,52,2,Avery Miller,Denison,49.9,113.4,70.31,136.08,319.78,Single-ply,SBD,M
Boys,52,3,Jayden Brown,Paris North Lamar,51.71,111.13,56.7,138.35,306.17,Single-ply,SBD,M
Boys,52,4,Deuntre Adamson,Paris,49.08,106.59,56.7,122.47,285.76,Single-ply,SBD,M
Boys,52,5,Kole Barrentine,Pattonville Prairiland,51.48,83.91,65.77,136.08,285.76,Single-ply,SBD,M
Boys,52,6,Hadley Workman,Leonard,51.71,95.25,58.97,115.67,269.89,Single-ply,SBD,M
Boys,52,7,Corbin Strain,Pattonville Prairiland,51.48,95.25,65.77,97.52,258.55,Single-ply,SBD,M
Boys,52,8,Keldon May,Pattonville Prairiland,49.67,83.91,56.7,99.79,240.4,Single-ply,SBD,M
Boys,56,1,Keiotti Bray,Paris,55.34,170.1,90.72,149.69,410.5,Single-ply,SBD,M
Boys,56,2,Jeremy Cuellar,Denison,54.2,122.47,92.99,176.9,392.36,Single-ply,SBD,M
Boys,56,3,Blayce Lassiter,Paris North Lamar,54.66,136.08,65.77,145.15,347,Single-ply,SBD,M
Boys,56,DQ,Juan Castanon,Mount Pleasant,55.34,124.74,,,,Single-ply,SBD,M
Boys,60,1,Gage Dollins,Paris North Lamar,59.19,156.49,99.79,167.83,424.11,Single-ply,SBD,M
Boys,60,2,Luke Kirkbride,Denison,58.06,151.95,90.72,167.83,410.5,Single-ply,SBD,M
Boys,60,3,Wesley Gage,Paris,59.51,165.56,74.84,170.1,410.5,Single-ply,SBD,M
Boys,60,4,Daniel Landaverde,Mount Pleasant,58.29,145.15,92.99,167.83,405.97,Single-ply,SBD,M
Boys,60,5,Bryce Evans,Paris North Lamar,59.19,142.88,86.18,156.49,385.55,Single-ply,SBD,M
Boys,60,6,Jose Areola,Mount Vernon,59.65,138.35,65.77,147.42,351.53,Single-ply,SBD,M
Boys,60,7,Zack Hedges,Mount Vernon,58.06,142.88,70.31,113.4,326.59,Single-ply,SBD,M
Boys,67.5,1,Jeremiah Brian,Leonard,66.45,204.12,120.2,208.65,532.97,Single-ply,SBD,M
Boys,67.5,2,Wilson Kirkbride,Denison,61.01,197.31,104.33,215.46,517.1,Single-ply,SBD,M
Boys,67.5,3,Devin Dotson,Little Elm,66.68,170.1,92.99,217.72,480.81,Single-ply,SBD,M
Boys,67.5,4,Greg Yarbrough,Paris,67.13,170.1,86.18,215.46,471.74,Single-ply,SBD,M
Boys,67.5,5,Nathan Smith #3,Mount Vernon,65.54,158.76,92.99,165.56,417.3,Single-ply,SBD,M
Boys,67.5,6,James Cyr,Whitewright,64.41,149.69,92.99,170.1,412.77,Single-ply,SBD,M
Boys,67.5,7,Cameron Clark,Paris North Lamar,65.32,138.35,83.91,163.29,385.55,Single-ply,SBD,M
Boys,67.5,8,Christian Cervantes,Mount Pleasant,63.96,138.35,74.84,158.76,371.95,Single-ply,SBD,M
Boys,67.5,9,Kobi Thomas,Longview Pine Tree,63.05,122.47,74.84,156.49,353.8,Single-ply,SBD,M
Boys,67.5,10,Jared Gibo,Paris,66.68,129.27,86.18,136.08,351.53,Single-ply,SBD,M
Boys,67.5,11,Dimitri Rape,Mount Vernon,64.41,113.4,68.04,151.95,333.39,Single-ply,SBD,M
Boys,67.5,12,Kt Jenkins,Paris North Lamar,63.05,131.54,65.77,131.54,328.85,Single-ply,SBD,M
Boys,67.5,13,Ethan Mays,Mount Pleasant,62.82,92.99,52.16,138.35,283.5,Single-ply,SBD,M
Boys,67.5,DQ,Orran Simmons,Longview Pine Tree,65.32,161.03,,,,Single-ply,SBD,M
Boys,75,1,Spencer Wright,Leonard,73.48,247.21,151.95,217.72,616.89,Single-ply,SBD,M
Boys,75,2,Eric Pheng,Paris North Lamar,73.03,219.99,133.81,213.19,566.99,Single-ply,SBD,M
Boys,75,3,Sam Cunningham,Pattonville Prairiland,74.16,210.92,124.74,210.92,546.58,Single-ply,SBD,M
Boys,75,4,Travius Bronner,Paris,71.21,222.26,111.13,190.51,523.9,Single-ply,SBD,M
Boys,75,5,Jeremiah Guenther,Paris North Lamar,73.03,192.78,117.93,206.38,517.1,Single-ply,SBD,M
Boys,75,6,Jesus Perez,Mount Pleasant,71.67,204.12,95.25,204.12,503.49,Single-ply,SBD,M
Boys,75,7,Joseph Murrell,Little Elm,74.39,188.24,117.93,197.31,503.49,Single-ply,SBD,M
Boys,75,8,Eli Shields,Bonham,70.76,201.85,99.79,192.78,494.42,Single-ply,SBD,M
Boys,75,9,Jaylon King,Paris,71.21,199.58,106.59,185.97,492.15,Single-ply,SBD,M
Boys,75,10,Javon Dawson,Longview Pine Tree,68.72,170.1,97.52,201.85,469.47,Single-ply,SBD,M
Boys,75,11,Trace Smith,Pattonville Prairiland,72.12,165.56,108.86,183.7,458.13,Single-ply,SBD,M
Boys,75,12,Jay Easley,Longview Pine Tree,71.67,158.76,68.04,190.51,417.3,Single-ply,SBD,M
Boys,75,13,Kobey Emeyabbi,Paris North Lamar,69.85,129.27,95.25,167.83,392.36,Single-ply,SBD,M
Boys,75,14,Alexander Redar,Mount Vernon,74.84,127.01,65.77,161.03,353.8,Single-ply,SBD,M
Boys,75,15,Alex Martinez,Mount Pleasant,67.59,129.27,61.23,158.76,349.27,Single-ply,SBD,M
Boys,75,16,Caleb James,Longview Pine Tree,71.21,102.06,74.84,145.15,322.05,Single-ply,SBD,M
Boys,82.5,1,Tre Lyday,Denison,82.1,213.19,138.35,249.48,601.01,Single-ply,SBD,M
Boys,82.5,2,Gavin Clark,Whitewright,78.93,188.24,138.35,197.31,523.9,Single-ply,SBD,M
Boys,82.5,3,Mason Chrisman,Paris North Lamar,77.56,183.7,115.67,217.72,517.1,Single-ply,SBD,M
Boys,82.5,4,Cameron Woods,Mount Vernon,77.34,192.78,104.33,215.46,512.56,Single-ply,SBD,M
Boys,82.5,5,Cameron Greenberg,Mount Vernon,79.61,204.12,108.86,190.51,503.49,Single-ply,SBD,M
Boys,82.5,6,Austin Mesick,Pattonville Prairiland,81.65,183.7,106.59,204.12,494.42,Single-ply,SBD,M
Boys,82.5,7,Cole Thompson,Little Elm,82.1,183.7,120.2,181.44,485.34,Single-ply,SBD,M
Boys,82.5,8,John Haller,Mount Vernon,77.11,185.97,95.25,199.58,480.81,Single-ply,SBD,M
Boys,82.5,9,Jordan Garrett,Paris North Lamar,79.15,122.47,106.59,136.08,365.14,Single-ply,SBD,M
Boys,82.5,10,Caedon Davis,Paris North Lamar,77.79,131.54,70.31,117.93,319.78,Single-ply,SBD,M
Boys,82.5,11,Alan Rodriguez,Mount Pleasant,78.24,129.27,56.7,129.27,315.25,Single-ply,SBD,M
Boys,90,1,Jaxon Hevron,Paris North Lamar,84.82,238.14,138.35,219.99,596.47,Single-ply,SBD,M
Boys,90,2,Morgan Landreth,Pattonville Prairiland,87.77,238.14,129.27,215.46,582.87,Single-ply,SBD,M
Boys,90,3,Ronnie Hart,Leonard,87.32,190.51,142.88,240.4,573.79,Single-ply,SBD,M
Boys,90,4,Hunter Bigelow,Denison,88.9,208.65,124.74,215.46,548.85,Single-ply,SBD,M
Boys,90,5,John Cooper,Whitewright,88.45,204.12,108.86,233.6,546.58,Single-ply,SBD,M
Boys,90,6,Tanner Young,Leonard,86.64,190.51,117.93,204.12,512.56,Single-ply,SBD,M
Boys,90,7,Quentin Freeman,Longview Pine Tree,87.54,170.1,99.79,181.44,451.32,Single-ply,SBD,M
Boys,90,8,Jacob Segura,Mount Pleasant,85.73,158.76,97.52,170.1,426.38,Single-ply,SBD,M
Boys,90,9,Dylan Wolfe,Paris North Lamar,87.54,167.83,102.06,154.22,424.11,Single-ply,SBD,M
Boys,90,10,Hunter Jones,Paris North Lamar,86.18,158.76,102.06,158.76,419.57,Single-ply,SBD,M
Boys,90,11,Blake Mays,Mount Pleasant,83.69,124.74,81.65,136.08,342.46,Single-ply,SBD,M
Boys,90,DQ,Reece Miller,Bonham,89.13,201.85,113.4,,,Single-ply,SBD,M
Boys,100,1,Hunter Moore,Paris North Lamar,97.52,238.14,131.54,208.65,578.33,Single-ply,SBD,M
Boys,100,2,Joel Guererro,Mount Pleasant,97.3,226.8,108.86,183.7,519.36,Single-ply,SBD,M
Boys,100,3,Jason Purifoy,Little Elm,99.79,195.04,129.27,190.51,514.83,Single-ply,SBD,M
Boys,100,4,Colton Vibbert,Leonard,90.72,199.58,113.4,199.58,512.56,Single-ply,SBD,M
Boys,100,5,Hunter Smith,Pattonville Prairiland,91.85,188.24,102.06,192.78,483.08,Single-ply,SBD,M
Boys,100,6,Xhavhiaer Ball,Whitewright,96.62,163.29,104.33,215.46,483.08,Single-ply,SBD,M
Boys,100,7,Adam Slubowski,Pattonville Prairiland,97.07,165.56,138.35,174.63,478.54,Single-ply,SBD,M
Boys,100,8,Edher Oviedo,Mount Pleasant,93.21,174.63,106.59,185.97,467.2,Single-ply,SBD,M
Boys,100,9,Michael Cortez,Mount Pleasant,92.08,179.17,92.99,181.44,453.59,Single-ply,SBD,M
Boys,100,10,Chris Clavel,Mount Pleasant,97.52,165.56,95.25,172.37,433.18,Single-ply,SBD,M
Boys,100,11,Erick Cabrerra,Mount Pleasant,97.3,140.61,68.04,136.08,344.73,Single-ply,SBD,M
Boys,100,DQ,Gary Wiley,Longview Pine Tree,95.93,,,,,Single-ply,SBD,M
Boys,100,DQ,Michael Godwin,Paris,97.52,208.65,,,,Single-ply,SBD,M
Boys,110,1,Brandon Halliday,Paris North Lamar,107.95,242.67,170.1,226.8,639.57,Single-ply,SBD,M
Boys,110,2,Hudson Barnes,Leonard,107.95,231.33,158.76,226.8,616.89,Single-ply,SBD,M
Boys,110,3,Gunner Vest,Paris,102.97,213.19,122.47,215.46,551.11,Single-ply,SBD,M
Boys,110,4,Garrett Holcombe,Denison,105.23,181.44,136.08,167.83,485.34,Single-ply,SBD,M
Boys,110,5,Ivan Elizando,Mount Pleasant,108.86,181.44,86.18,181.44,449.06,Single-ply,SBD,M
Boys,110,6,Colton Brantley,Mount Vernon,101.15,147.42,97.52,167.83,412.77,Single-ply,SBD,M
Boys,110,7,Tyler O'Brier,Mount Vernon,106.37,158.76,79.38,158.76,396.89,Single-ply,SBD,M
Boys,110,DQ,Ozzy Delarosa,Denison,109.54,,,,,Single-ply,SBD,M
Boys,125,1,Christian Chamness,Mount Vernon,112.72,265.35,133.81,256.28,655.44,Single-ply,SBD,M
Boys,125,2,Daniel Dowling,Bonham,115.67,281.23,151.95,199.58,632.76,Single-ply,SBD,M
Boys,125,3,Joey Haley,Paris North Lamar,113.85,226.8,136.08,249.48,612.35,Single-ply,SBD,M
Boys,125,4,Colton Chamberlain,Paris North Lamar,112.04,231.33,142.88,208.65,582.87,Single-ply,SBD,M
Boys,125,5,Antoine Robinson,Denison,119.75,226.8,122.47,215.46,564.72,Single-ply,SBD,M
Boys,125,6,Keith Burkes,Longview Pine Tree,114.31,197.31,111.13,210.92,519.36,Single-ply,SBD,M
Boys,125,7,Blake Denison,Mount Pleasant,122.02,181.44,106.59,181.44,469.47,Single-ply,SBD,M
Boys,125,8,Brandon Justice,Paris North Lamar,117.93,61.23,65.77,104.33,231.33,Single-ply,SBD,M
Boys,125+,1,Mose Jeffery,Longview Pine Tree,156.04,249.48,129.27,235.87,614.62,Single-ply,SBD,M
Boys,125+,2,Byron Muse,Paris,130.45,233.6,151.95,226.8,612.35,Single-ply,SBD,M
Boys,125+,3,Alex Thornburg,Longview Pine Tree,126.33,147.42,117.93,195.04,460.4,Single-ply,SBD,M
Boys,125+,4,Riley Miner,Paris North Lamar,127.01,158.76,104.33,170.1,433.18,Single-ply,SBD,M
Boys,125+,DQ,Seth Maynard,Little Elm,137.21,249.48,129.27,,,Single-ply,SBD,M
Boys,125+,DQ,Jaden Forbes,Denison,151.95,226.8,117.93,,,Single-ply,SBD,M
Boys,125+,DQ,Dom Little,Whitewright,133.81,,,,,Single-ply,SBD,M
