Place,Name,State,WeightClassKg,BodyweightKg,Age,Best3SquatKg,Best3BenchKg,Best3DeadliftKg,TotalKg,Sex,Division,Equipment,Event
1,Zia Thach,CA,52,49.65,20,75,45,112.5,232.5,F,Juniors 20-23,Raw,SBD
1,Melanie Ing,CA,56,55.5,22,127.5,47.5,155,330,F,Juniors 20-23,Raw,SBD
1,Marisa Rosas,CA,60,57.05,20,102.5,55,135,292.5,F,Juniors 20-23,Raw,SBD
2,Ashley Snow,CA,60,57.55,21,102.5,47.5,105,255,F,Juniors 20-23,Raw,SBD
1,Karina Gonzalez,CA,52,49.75,27,60,37.5,95,192.5,F,Open,Raw,SBD
1,Melanie Ing,CA,56,55.5,22,127.5,47.5,155,330,F,Open,Raw,SBD
2,Christine Sarmiento,CA,56,55.6,29,102.5,50,140,292.5,F,Open,Raw,SBD
3,Stephanie Dang,CA,56,54.1,25,90,50,95,235,F,Open,Raw,SBD
1,Marisa Rosas,CA,60,57.05,20,102.5,55,135,292.5,F,Open,Raw,SBD
2,Danielly Rocha-Lanter,CA,60,59.05,30,100,47.5,137.5,285,F,Open,Raw,SBD
3,Andrea Passwater,CA,60,56.35,29,95,57.5,107.5,260,F,Open,Raw,SBD
4,Lexi Ross,CA,60,58.05,26,87.5,47.5,110,245,F,Open,Raw,SBD
1,Natasha Barnes,CA,67.5,67.05,28,122.5,70,145,337.5,F,Open,Raw,SBD
2,Samantha Chastain,CA,67.5,67.45,28,137.5,62.5,130,330,F,Open,Raw,SBD
3,Laura Kelly,CA,67.5,62.8,29,102.5,50,120,272.5,F,Open,Raw,SBD
4,Tamera Lingren,CA,67.5,66.55,26,87.5,42.5,102.5,232.5,F,Open,Raw,SBD
1,Brittney Gates,CA,75,74.3,28,132.5,65,155,352.5,F,Open,Raw,SBD
2,Sarah Fausto,CA,75,75,25,130,75,145,350,F,Open,Raw,SBD
3,Elizabeth Quiroz,CA,75,70.35,32,82.5,52.5,117.5,252.5,F,Open,Raw,SBD
1,Melanie Krygier,CA,82.5,82.25,33,155,80,145,380,F,Open,Raw,SBD
2,Laura Krieg,CA,82.5,82.3,50,92.5,55,122.5,270,F,Open,Raw,SBD
DQ,Janet Dryer,CA,82.5,80.75,33,112.5,-57.5,117.5,,F,Open,Raw,SBD
1,Charquita Arnold,CA,90+,117.75,29,142.5,87.5,187.5,417.5,F,Open,Raw,SBD
2,Roxanna Ortega,IL,90+,92.65,28,142.5,70,145,357.5,F,Open,Raw,SBD
3,Michelle Huntley,CA,90+,137.4,51,110,72.5,142.5,325,F,Open,Raw,SBD
4,Julia Guizar,CA,90+,97.35,27,107.5,65,112.5,285,F,Open,Raw,SBD
1,Martine Corlett,CA,52,50.65,35,70,42.5,112.5,225,F,Submasters 35-39,Raw,SBD
1,Carlyn Mikita,CA,52,51.6,73,40,40,70,150,F,Masters 70-74,Raw,SBD
1,Natalie Young,CA,60,58.55,51,62.5,37.5,72.5,172.5,F,Masters 50-54,Raw,SBD
1,Betsy Spann,CA,67.5,66.6,60,70,55,115.5,240.5,F,Masters 60-64,Raw,SBD
1,Pauline Machado,CA,75,74.2,53,70,47.5,100,217.5,F,Masters 50-54,Raw,SBD
1,Laura Krieg,CA,82.5,82.3,50,92.5,55,122.5,270,F,Masters 50-54,Raw,SBD
1,Elizabeth Ritchie,CA,82.5,75.25,64,82.5,50,112.5,245,F,Masters 60-64,Raw,SBD
1,Michelle Huntley,CA,90+,137.4,51,110,72.5,142.5,325,F,Masters 50-54,Raw,SBD
2,Heidi Rytter,CA,90+,107.25,50,70,55,105,230,F,Masters 50-54,Raw,SBD
1,Barbara Thorsen,CA,90+,121.95,55,85,45,115,245,F,Masters 55-59,Raw,SBD
DQ,Dan Moung,CA,67.5,65.5,18,120,-80,165,,M,Juniors 18-19,Raw,SBD
1,Chris Pineda,CA,67.5,66.55,29,170,130,225,525,M,Open,Raw,SBD
1,Vincent Truong,CA,75,72.95,26,170,110,187.5,467.5,M,Open,Raw,SBD
2,Eric Maciel,CA,75,74.15,27,155,85,207.5,447.5,M,Open,Raw,SBD
1,Jeremy McKellar,CA,75,74.95,39,97.5,122.5,187.5,407.5,M,Submasters 35-39,Raw,SBD
1,Thanh Ngo,CA,82.5,81.9,21,212.5,147.5,292.5,652.5,M,Juniors 20-23,Raw,SBD
2,Abraham Zuniga,CA,82.5,81.6,21,227.5,152.5,242.5,622.5,M,Juniors 20-23,Raw,SBD
3,Kane Elliott,CA,82.5,80,22,222.5,122.5,260,605,M,Juniors 20-23,Raw,SBD
4,Zahary Cox,CA,82.5,78.3,23,160,95,220,475,M,Juniors 20-23,Raw,SBD
5,Tyler Walters,CA,82.5,81,23,132.5,110,177.5,420,M,Juniors 20-23,Raw,SBD
1,Nolan Henderson,CA,90,86.7,15,142.5,105,160,407.5,M,Juniors 13-15,Raw,SBD
1,Daniel Maxwell,CA,90,87.7,20,217.5,125,242.5,585,M,Juniors 20-23,Raw,SBD
2,Brendon Apostol,CA,90,87.7,23,145,105,205,455,M,Juniors 20-23,Raw,SBD
1,Dakota Peters,CA,100,99.6,23,215,145,250,610,M,Juniors 20-23,Raw,SBD
2,Jacob Sandy,CA,100,99.8,23,232.5,122.5,245,600,M,Juniors 20-23,Raw,SBD
1,Kalen Jotojot,CA,110,107.2,20,227.5,127.5,227.5,582.5,M,Juniors 18-19,Raw,SBD
1,Joseph Shepard,CA,125,111.4,23,230,175,265,670,M,Juniors 20-23,Raw,SBD
1,Thanh Ngo,CA,82.5,81.9,21,212.5,147.5,292.5,652.5,M,Open,Raw,SBD
2,Albert Bartolone,CA,82.5,82.4,35,215,160,240,615,M,Open,Raw,SBD
3,Jerimiah Mahn,CA,82.5,81.3,28,200,137.5,227.5,565,M,Open,Raw,SBD
4,Miguel Areaga,CA,82.5,82,33,165,137.5,227.5,530,M,Open,Raw,SBD
5,Jonathan Sanchez,CA,82.5,78.5,25,177.5,125,210,512.5,M,Open,Raw,SBD
6,Zachary Cox,CA,82.5,78.3,23,160,95,220,475,M,Open,Raw,SBD
1,Andrew Dinglasan,CA,90,88.9,32,220,137.5,255,612.5,M,Open,Raw,SBD
2,Daniel Maxwell,CA,90,87.7,20,217.5,125,242.5,585,M,Open,Raw,SBD
3,Benjamin Harvey,CA,90,87.9,28,167.5,155,245,567.5,M,Open,Raw,SBD
4,Alex Padres,CA,90,89.9,26,195,122.5,210,527.5,M,Open,Raw,SBD
5,Christopher Milligan,CA,90,83.1,28,182.5,102.5,227.5,512.5,M,Open,Raw,SBD
6,Brendon Apostol,CA,90,87.7,23,145,105,205,455,M,Open,Raw,SBD
7,Ray Gualaski,CA,90,88.4,45,145,137.5,165,447.5,M,Open,Raw,SBD
1,Donovan Dolcini,CA,100,99.9,29,215,185,237.5,637.5,M,Open,Raw,SBD
2,Cesar Alca,CA,100,97.9,27,227.5,145,232.5,605,M,Open,Raw,SBD
3,Steven Ortega,CA,100,94.6,28,192.5,125,245,562.5,M,Open,Raw,SBD
4,Harihar Nandagopal,CA,100,90.4,27,182.5,127.5,247.5,557.5,M,Open,Raw,SBD
5,Joe LaMarianna,CA,100,92.8,28,185,127.5,220,532.5,M,Open,Raw,SBD
6,Thomas McConnell,CA,100,94.2,36,127.5,95,142.5,365,M,Open,Raw,SBD
1,Tony Sanders,CA,110,105.5,40,265,175,275,715,M,Open,Raw,SBD
2,John Davis,CA,110,108.8,40,245,167.5,275,687.5,M,Open,Raw,SBD
3,Doug Carroll,CA,110,107.3,56,210,130,260,600,M,Open,Raw,SBD
4,Michael Snow,CA,110,107.6,28,185,140,225,550,M,Open,Raw,SBD
5,Bryan Tillett,CA,110,109.1,29,127.5,95,185,407.5,M,Open,Raw,SBD
1,Joseph Shepard,CA,125,111.4,23,230,175,265,670,M,Open,Raw,SBD
1,Darryl Wright,CA,140,126.4,30,235,185,250,670,M,Open,Raw,SBD
1,Andrew Fong,CA,90,86.7,36,210,147.5,172.5,530,M,Submasters 35-39,Raw,SBD
1,Antonio Machuca,CA,100,95.4,36,252.5,162.5,327.5,742.5,M,Submasters 35-39,Raw,SBD
1,Eric Guzman,CA,110,101.6,35,115,92.5,112.5,320,M,Submasters 35-39,Raw,SBD
1,Christopher Fondacci,CA,125,124,38,220,147.5,257.5,625,M,Submasters 35-39,Raw,SBD
1,Eric Kapke,CA,100,98.2,40,160,120,197.5,477.5,M,Masters 40-44,Raw,SBD
1,Tony Sanders,CA,110,105.5,40,265,175,275,715,M,Masters 40-44,Raw,SBD
2,John Davis,CA,110,108.8,40,245,167.5,275,687.5,M,Masters 40-44,Raw,SBD
1,Bob Vecchiarello,CA,140,135.8,47,245,195,242.5,682.5,M,Masters 45-49,Raw,SBD
1,Michael Hughes,CA,140+,144.8,57,160,165,215.5,540.5,M,Masters 55-59,Raw,SBD
1,Janie Baythavong,CA,48,47.75,29,117.5,55,117.5,290,F,Open,Wraps,SBD
1,Marybeth Baluyot,CA,52,52,25,137.5,57.5,130,325,F,Open,Wraps,SBD
1,Hubbel Richmond,CA,90,90,29,272.5,182.5,272.5,727.5,M,Open,Wraps,SBD
1,Chris Brusato,CA,100,94.6,28,277.5,187.5,282.5,747.5,M,Open,Wraps,SBD
2,Chris Lowe,CA,100,98.9,26,207.5,147.5,242.5,597.5,M,Open,Wraps,SBD
DQ,Parminderpal Singh,CA,100,99.7,22,222.5,-167.5,255,,M,Open,Wraps,SBD
1,Sophia Van Leeuwen,CA,67.5,60.45,18,,62.5,,62.5,F,Juniors 18-19,Raw,B
1,Betsy Spann,CA,67.5,66.6,60,,55,,55,F,Masters 60-64,Raw,B
1,Teresa DeLao,CA,67.5,65.8,80,,30,,30,F,Masters 80-84,Raw,B
1,Gigi Cappelletty,CA,82.5,78.05,62,,40,,40,F,Masters 60-64,Raw,B
1,Adam Weiss,CA,110,109.8,20,,165,,165,M,Juniors 20-23,Raw,B
1,Robert Scott,CA,140+,155.7,51,,192.5,,192.5,M,Open,Raw,B
1,Steve Obrien,CA,90,89.1,68,,130,,130,M,Masters 65-69,Raw,B
1,Mike Tiktinsky,CA,90,89.8,71,,92.5,,92.5,M,Masters 70-74,Raw,B
1,Robert Scott,CA,140+,155.7,51,,192.5,,192.5,M,Masters 50-54,Raw,B
1,Betsy Spann,CA,67.5,66.6,60,,,115.5,115.5,F,Masters 60-64,Raw,D
1,Teresa DeLao,CA,67.5,65.8,80,,,62.5,62.5,F,Masters 80-84,Raw,D
1,Gigi Cappelletty,CA,82.5,78.05,62,,,82.5,82.5,F,Masters 60-64,Raw,D
1,Annette Thorsen,CA,90+,96.7,54,,,138.5,138.5,F,Masters 50-54,Raw,D
1,Kalen Jotojot,CA,110,107.2,20,,,227.5,227.5,M,Juniors 18-19,Raw,D
DQ,Austin Hartford,UT,90,89.1,24,,,-262.5,,M,Open,Raw,D
1,Matthew Vizcara,CA,82.5,80,32,,,242.5,242.5,M,Open,Single-ply,D
